<svg width="24" height="26" viewBox="0 0 24 26" fill="none" xmlns="http://www.w3.org/2000/svg">
<g clip-path="url(#clip0)" filter="url(#filter0_d)">
<path fill-rule="evenodd" clip-rule="evenodd" d="M14.5199 2.6018C15.0479 1.92708 15.4482 0.973436 15.3034 0C14.4404 0.0593673 13.4317 0.605924 12.8431 1.31833C12.3066 1.96383 11.8656 2.92408 12.0379 3.85605C12.9813 3.88526 13.955 3.32551 14.5199 2.6018Z" fill="#555555"/>
<path fill-rule="evenodd" clip-rule="evenodd" d="M20 13.0826C19.5632 14.0424 19.353 14.4712 18.7902 15.3214C18.0053 16.5081 16.8984 17.9857 15.5255 17.9966C14.307 18.0096 13.9928 17.2095 12.3385 17.2192C10.6843 17.2279 10.3394 18.0118 9.11868 17.9999C7.74688 17.9879 6.69805 16.6546 5.91308 15.4679C3.71689 12.1521 3.48588 8.25978 4.84016 6.18929C5.80359 4.71921 7.32319 3.85931 8.75082 3.85931C10.2036 3.85931 11.1178 4.64973 12.321 4.64973C13.4881 4.64973 14.1986 3.85714 15.8791 3.85714C17.1513 3.85714 18.499 4.54441 19.4581 5.73003C16.3138 7.43897 16.8229 11.8915 20 13.0826Z" fill="#555555"/>
</g>
<defs>
<filter id="filter0_d" x="0" y="0" width="24" height="26" filterUnits="userSpaceOnUse" color-interpolation-filters="sRGB">
<feFlood flood-opacity="0" result="BackgroundImageFix"/>
<feColorMatrix in="SourceAlpha" type="matrix" values="0 0 0 0 0 0 0 0 0 0 0 0 0 0 0 0 0 0 127 0"/>
<feOffset dy="4"/>
<feGaussianBlur stdDeviation="2"/>
<feColorMatrix type="matrix" values="0 0 0 0 0 0 0 0 0 0 0 0 0 0 0 0 0 0 0.25 0"/>
<feBlend mode="normal" in2="BackgroundImageFix" result="effect1_dropShadow"/>
<feBlend mode="normal" in="SourceGraphic" in2="effect1_dropShadow" result="shape"/>
</filter>
<clipPath id="clip0">
<rect width="16" height="18" fill="white" transform="translate(4)"/>
</clipPath>
</defs>
</svg>
