<svg width="16" height="18" viewBox="0 0 16 18" fill="none" xmlns="http://www.w3.org/2000/svg">
<g clip-path="url(#clip0)">
<path fill-rule="evenodd" clip-rule="evenodd" d="M9.1408 8.97738L0.638946 0.0206985C0.287784 0.103201 0 0.423316 0 1.06675C0 2.11197 0 16.0417 0 16.9192C0 17.5252 0.22639 17.9513 0.645032 17.9939L9.1408 8.97738Z" fill="#555555"/>
<path fill-rule="evenodd" clip-rule="evenodd" d="M9.52509 8.55117L11.797 6.15824C11.797 6.15824 1.92424 0.484931 1.33319 0.145305C1.10601 0.0147221 0.858191 -0.0307257 0.638947 0.0206991L9.52509 8.55117Z" fill="#555555"/>
<path fill-rule="evenodd" clip-rule="evenodd" d="M9.91579 8.96258L12.4795 11.3871C12.4795 11.3871 15.3832 9.71306 15.5075 9.64132C15.9267 9.39966 16.3659 8.78298 15.5075 8.29006C15.2895 8.1646 12.4928 6.55796 12.4928 6.55796L9.91579 8.96258Z" fill="#555555"/>
<path fill-rule="evenodd" clip-rule="evenodd" d="M0.645031 17.9939C0.836887 18.0195 1.06778 17.966 1.3332 17.813C1.8827 17.4962 7.78392 14.0939 11.7995 11.7789L9.52515 9.3355L0.645031 17.9939Z" fill="#555555"/>
</g>
<defs>
<clipPath id="clip0">
<rect width="16" height="18" fill="white"/>
</clipPath>
</defs>
</svg>
