<svg width="26" height="20" viewBox="0 0 26 20" fill="none" xmlns="http://www.w3.org/2000/svg">
<path d="M25.2345 0.37293C25.2205 0.164297 24.9663 0 24.6576 0H1.46209C1.15399 0 0.900185 0.163594 0.885285 0.371758L0.54999 5.05926C0.542367 5.16602 0.599713 5.27023 0.708744 5.34758C0.817718 5.42496 0.968849 5.46875 1.12685 5.46875H3.05864C3.36061 5.46875 3.61165 5.31137 3.63446 5.1077C3.72375 4.31203 4.00048 3.6802 4.45705 3.22957C4.9071 2.78508 5.42488 2.49473 6.03986 2.34203C6.38168 2.26172 7.11585 2.16641 8.67417 2.16641H10.3765V15.4688C10.3765 16.8174 10.1251 17.2104 10.0182 17.3157C9.62658 17.6984 8.94571 17.8845 7.93677 17.8845H6.93094C6.61199 17.8845 6.35344 18.0593 6.35344 18.2751V19.6094C6.35344 19.8251 6.61199 20 6.93094 20H18.9792C19.2981 20 19.5567 19.8251 19.5567 19.6094V18.275C19.5567 18.0593 19.2981 17.8844 18.9792 17.8844H17.9944C17.0691 17.8844 16.3899 17.7285 15.9754 17.4209C15.8727 17.3389 15.5545 16.9628 15.5545 15.4688V5.58594C15.5545 5.3702 15.296 5.19531 14.977 5.19531C14.6581 5.19531 14.3995 5.3702 14.3995 5.58594V15.4688C14.3995 16.7774 14.6245 17.5615 15.1074 17.9364C15.1098 17.9382 15.1121 17.94 15.1145 17.9418C15.7569 18.4221 16.7258 18.6657 17.9944 18.6657H18.4017V19.2188H7.50844V18.6657H7.93677C9.33333 18.6657 10.3531 18.3611 10.969 17.7593C11.3528 17.3815 11.5315 16.6537 11.5315 15.4688V1.77578C11.5315 1.56004 11.273 1.38516 10.954 1.38516H8.67417C7.26889 1.38516 6.28119 1.45723 5.65473 1.60547C5.65218 1.60605 5.6497 1.60668 5.64716 1.6073C4.80857 1.81461 4.08757 2.21191 3.50418 2.78801C3.00695 3.27879 2.68246 3.91652 2.53681 4.68746H1.73294L2.01233 0.781211H24.1057L24.3676 4.68746H23.5404C23.3839 4.01656 23.1804 3.52621 22.9207 3.19313C22.4347 2.57844 21.7734 2.1168 20.9547 1.8209C20.1536 1.53176 19.1069 1.38512 17.8436 1.38512H14.977C14.6581 1.38512 14.3995 1.56 14.3995 1.77574C14.3995 1.99148 14.6581 2.16637 14.977 2.16637H17.8436C18.9152 2.16637 19.779 2.28203 20.4107 2.51004C21.0327 2.73484 21.5206 3.07883 21.9007 3.55953C22.0601 3.76398 22.2878 4.20223 22.4675 5.12887C22.5052 5.32332 22.7502 5.46871 23.0401 5.46871H24.9719C25.1296 5.46871 25.2804 5.42508 25.3893 5.34797C25.4982 5.27086 25.5559 5.16695 25.5487 5.06039L25.2345 0.37293Z" fill="black"/>
<path d="M14.3995 3.08594V4.25781C14.3995 4.47355 14.6581 4.64844 14.977 4.64844C15.296 4.64844 15.5545 4.47355 15.5545 4.25781V3.08594C15.5545 2.8702 15.296 2.69531 14.977 2.69531C14.6581 2.69531 14.3995 2.8702 14.3995 3.08594Z" fill="black"/>
</svg>
